info face="graphicpixel-webfont" size=12 bold=0 italic=0 charset="" unicode=1 stretchH=100 smooth=1 aa=2 padding=0,0,0,0 spacing=0,0
common lineHeight=15 base=12 scaleW=512 scaleH=512 pages=1 packed=0 alphaChnl=0 redChnl=0 greenChnl=0 blueChnl=0
page id=0 file="graphicpixel.png"
chars count=96
char id=10   x=1    y=505  width=0    height=0    xoffset=0    yoffset=12   xadvance=6    page=0    chnl=0
char id=32   x=0    y=0    width=0    height=0    xoffset=0    yoffset=0    xadvance=5    page=0    chnl=0
char id=33   x=46   y=492  width=2    height=9    xoffset=0    yoffset=3    xadvance=2    page=0    chnl=0
char id=34   x=280  y=20   width=4    height=3    xoffset=0    yoffset=3    xadvance=5    page=0    chnl=0
char id=35   x=375  y=51   width=7    height=8    xoffset=0    yoffset=4    xadvance=7    page=0    chnl=0
char id=36   x=352  y=61   width=7    height=11   xoffset=0    yoffset=2    xadvance=7    page=0    chnl=0
char id=37   x=363  y=51   width=10   height=10   xoffset=0    yoffset=2    xadvance=11   page=0    chnl=0
char id=38   x=384  y=51   width=8    height=9    xoffset=0    yoffset=3    xadvance=8    page=0    chnl=0
char id=39   x=296  y=20   width=2    height=3    xoffset=0    yoffset=3    xadvance=2    page=0    chnl=0
char id=40   x=177  y=67   width=3    height=9    xoffset=0    yoffset=3    xadvance=4    page=0    chnl=0
char id=41   x=320  y=51   width=3    height=9    xoffset=0    yoffset=3    xadvance=4    page=0    chnl=0
char id=42   x=375  y=68   width=7    height=7    xoffset=0    yoffset=3    xadvance=7    page=0    chnl=0
char id=43   x=363  y=63   width=7    height=7    xoffset=0    yoffset=4    xadvance=7    page=0    chnl=0
char id=44   x=351  y=20   width=3    height=4    xoffset=0    yoffset=10   xadvance=4    page=0    chnl=0
char id=45   x=366  y=20   width=6    height=2    xoffset=0    yoffset=6    xadvance=6    page=0    chnl=0
char id=46   x=313  y=20   width=2    height=2    xoffset=0    yoffset=10   xadvance=2    page=0    chnl=0
char id=47   x=344  y=51   width=6    height=11   xoffset=0    yoffset=3    xadvance=6    page=0    chnl=0
char id=48   x=311  y=51   width=7    height=9    xoffset=0    yoffset=3    xadvance=7    page=0    chnl=0
char id=49   x=46   y=391  width=4    height=9    xoffset=0    yoffset=3    xadvance=5    page=0    chnl=0
char id=50   x=275  y=62   width=7    height=9    xoffset=0    yoffset=3    xadvance=7    page=0    chnl=0
char id=51   x=284  y=51   width=7    height=9    xoffset=0    yoffset=3    xadvance=7    page=0    chnl=0
char id=52   x=284  y=62   width=7    height=9    xoffset=0    yoffset=3    xadvance=7    page=0    chnl=0
char id=53   x=46   y=477  width=6    height=9    xoffset=0    yoffset=3    xadvance=6    page=0    chnl=0
char id=54   x=293  y=51   width=7    height=9    xoffset=0    yoffset=3    xadvance=7    page=0    chnl=0
char id=55   x=293  y=62   width=7    height=9    xoffset=0    yoffset=3    xadvance=7    page=0    chnl=0
char id=56   x=302  y=51   width=7    height=9    xoffset=0    yoffset=3    xadvance=7    page=0    chnl=0
char id=57   x=302  y=62   width=7    height=9    xoffset=0    yoffset=3    xadvance=7    page=0    chnl=0
char id=58   x=29   y=167  width=2    height=7    xoffset=0    yoffset=4    xadvance=2    page=0    chnl=0
char id=59   x=29   y=176  width=3    height=8    xoffset=0    yoffset=4    xadvance=4    page=0    chnl=0
char id=60   x=336  y=51   width=6    height=9    xoffset=0    yoffset=3    xadvance=6    page=0    chnl=0
char id=61   x=363  y=72   width=7    height=5    xoffset=0    yoffset=5    xadvance=7    page=0    chnl=0
char id=62   x=336  y=62   width=6    height=9    xoffset=0    yoffset=3    xadvance=6    page=0    chnl=0
char id=63   x=311  y=62   width=7    height=9    xoffset=0    yoffset=3    xadvance=7    page=0    chnl=0
char id=64   x=352  y=51   width=9    height=8    xoffset=0    yoffset=4    xadvance=10   page=0    chnl=0
char id=65   x=115  y=66   width=7    height=9    xoffset=0    yoffset=3    xadvance=7    page=0    chnl=0
char id=66   x=124  y=68   width=7    height=9    xoffset=0    yoffset=3    xadvance=7    page=0    chnl=0
char id=67   x=148  y=68   width=7    height=9    xoffset=0    yoffset=3    xadvance=7    page=0    chnl=0
char id=68   x=157  y=68   width=7    height=9    xoffset=0    yoffset=3    xadvance=7    page=0    chnl=0
char id=69   x=168  y=67   width=7    height=9    xoffset=0    yoffset=3    xadvance=7    page=0    chnl=0
char id=70   x=184  y=51   width=7    height=9    xoffset=0    yoffset=3    xadvance=7    page=0    chnl=0
char id=71   x=184  y=62   width=7    height=9    xoffset=0    yoffset=3    xadvance=7    page=0    chnl=0
char id=72   x=193  y=51   width=7    height=9    xoffset=0    yoffset=3    xadvance=7    page=0    chnl=0
char id=73   x=193  y=62   width=7    height=9    xoffset=0    yoffset=3    xadvance=7    page=0    chnl=0
char id=74   x=202  y=51   width=7    height=9    xoffset=0    yoffset=3    xadvance=7    page=0    chnl=0
char id=75   x=202  y=62   width=7    height=9    xoffset=0    yoffset=3    xadvance=7    page=0    chnl=0
char id=76   x=211  y=51   width=7    height=9    xoffset=0    yoffset=3    xadvance=7    page=0    chnl=0
char id=77   x=211  y=62   width=7    height=9    xoffset=0    yoffset=3    xadvance=7    page=0    chnl=0
char id=78   x=220  y=51   width=7    height=9    xoffset=0    yoffset=3    xadvance=7    page=0    chnl=0
char id=79   x=220  y=62   width=7    height=9    xoffset=0    yoffset=3    xadvance=7    page=0    chnl=0
char id=80   x=229  y=51   width=7    height=9    xoffset=0    yoffset=3    xadvance=7    page=0    chnl=0
char id=81   x=238  y=51   width=8    height=9    xoffset=0    yoffset=3    xadvance=8    page=0    chnl=0
char id=82   x=229  y=62   width=7    height=9    xoffset=0    yoffset=3    xadvance=7    page=0    chnl=0
char id=83   x=238  y=62   width=7    height=9    xoffset=0    yoffset=3    xadvance=7    page=0    chnl=0
char id=84   x=248  y=51   width=7    height=9    xoffset=0    yoffset=3    xadvance=7    page=0    chnl=0
char id=85   x=248  y=62   width=7    height=9    xoffset=0    yoffset=3    xadvance=7    page=0    chnl=0
char id=86   x=257  y=51   width=7    height=9    xoffset=0    yoffset=3    xadvance=7    page=0    chnl=0
char id=87   x=257  y=62   width=7    height=9    xoffset=0    yoffset=3    xadvance=7    page=0    chnl=0
char id=88   x=266  y=51   width=7    height=9    xoffset=0    yoffset=3    xadvance=7    page=0    chnl=0
char id=89   x=266  y=62   width=7    height=9    xoffset=0    yoffset=3    xadvance=7    page=0    chnl=0
char id=90   x=275  y=51   width=7    height=9    xoffset=0    yoffset=3    xadvance=7    page=0    chnl=0
char id=91   x=320  y=62   width=3    height=9    xoffset=0    yoffset=3    xadvance=4    page=0    chnl=0
char id=92   x=344  y=64   width=6    height=11   xoffset=0    yoffset=3    xadvance=6    page=0    chnl=0
char id=93   x=325  y=51   width=3    height=9    xoffset=0    yoffset=3    xadvance=4    page=0    chnl=0
char id=94   x=356  y=20   width=4    height=4    xoffset=0    yoffset=2    xadvance=5    page=0    chnl=0
char id=95   x=396  y=20   width=7    height=2    xoffset=0    yoffset=10   xadvance=7    page=0    chnl=0
char id=96   x=151  y=20   width=3    height=3    xoffset=0    yoffset=3    xadvance=4    page=0    chnl=0
char id=97   x=370  y=41   width=7    height=7    xoffset=0    yoffset=5    xadvance=7    page=0    chnl=0
char id=98   x=46   y=187  width=6    height=9    xoffset=0    yoffset=3    xadvance=6    page=0    chnl=0
char id=99   x=381  y=41   width=6    height=7    xoffset=0    yoffset=5    xadvance=6    page=0    chnl=0
char id=100  x=46   y=202  width=6    height=9    xoffset=0    yoffset=3    xadvance=6    page=0    chnl=0
char id=101  x=392  y=41   width=7    height=7    xoffset=0    yoffset=5    xadvance=7    page=0    chnl=0
char id=102  x=46   y=402  width=6    height=12   xoffset=0    yoffset=2    xadvance=6    page=0    chnl=0
char id=103  x=46   y=417  width=6    height=10   xoffset=0    yoffset=5    xadvance=6    page=0    chnl=0
char id=104  x=46   y=232  width=6    height=9    xoffset=0    yoffset=3    xadvance=6    page=0    chnl=0
char id=105  x=46   y=295  width=4    height=9    xoffset=0    yoffset=3    xadvance=5    page=0    chnl=0
char id=106  x=46   y=432  width=6    height=12   xoffset=0    yoffset=3    xadvance=6    page=0    chnl=0
char id=107  x=46   y=306  width=6    height=9    xoffset=0    yoffset=3    xadvance=6    page=0    chnl=0
char id=108  x=31   y=495  width=2    height=9    xoffset=0    yoffset=3    xadvance=2    page=0    chnl=0
char id=109  x=403  y=41   width=7    height=7    xoffset=0    yoffset=5    xadvance=7    page=0    chnl=0
char id=110  x=414  y=41   width=6    height=7    xoffset=0    yoffset=5    xadvance=6    page=0    chnl=0
char id=111  x=425  y=41   width=7    height=7    xoffset=0    yoffset=5    xadvance=7    page=0    chnl=0
char id=112  x=46   y=358  width=6    height=9    xoffset=0    yoffset=5    xadvance=6    page=0    chnl=0
char id=113  x=46   y=369  width=6    height=9    xoffset=0    yoffset=5    xadvance=6    page=0    chnl=0
char id=114  x=436  y=41   width=6    height=7    xoffset=0    yoffset=5    xadvance=6    page=0    chnl=0
char id=115  x=447  y=41   width=6    height=7    xoffset=0    yoffset=5    xadvance=6    page=0    chnl=0
char id=116  x=46   y=380  width=6    height=9    xoffset=0    yoffset=3    xadvance=6    page=0    chnl=0
char id=117  x=458  y=41   width=6    height=7    xoffset=0    yoffset=5    xadvance=6    page=0    chnl=0
char id=118  x=469  y=41   width=7    height=7    xoffset=0    yoffset=5    xadvance=7    page=0    chnl=0
char id=119  x=480  y=41   width=7    height=7    xoffset=0    yoffset=5    xadvance=7    page=0    chnl=0
char id=120  x=491  y=41   width=7    height=7    xoffset=0    yoffset=5    xadvance=7    page=0    chnl=0
char id=121  x=46   y=462  width=6    height=10   xoffset=0    yoffset=5    xadvance=6    page=0    chnl=0
char id=122  x=502  y=41   width=7    height=7    xoffset=0    yoffset=5    xadvance=7    page=0    chnl=0
char id=123  x=330  y=51   width=4    height=10   xoffset=0    yoffset=4    xadvance=5    page=0    chnl=0
char id=124  x=50   y=492  width=2    height=9    xoffset=0    yoffset=3    xadvance=2    page=0    chnl=0
char id=125  x=330  y=63   width=4    height=10   xoffset=0    yoffset=4    xadvance=5    page=0    chnl=0
char id=126  x=375  y=61   width=7    height=5    xoffset=0    yoffset=5    xadvance=7    page=0    chnl=0
kernings count=0
