info face="Perfect DOS VGA 437 Win" size=32 bold=0 italic=0 charset="" unicode=1 stretchH=100 smooth=1 aa=1 padding=0,0,0,0 spacing=1,1 outline=0
common lineHeight=32 base=24 scaleW=256 scaleH=256 pages=1 packed=0 alphaChnl=1 redChnl=0 greenChnl=0 blueChnl=0
page id=0 file="button_font_0.png"
chars count=180
char id=1    x=206   y=46    width=17    height=19    xoffset=-1    yoffset=5     xadvance=17    page=0  chnl=15
char id=2    x=152   y=46    width=17    height=19    xoffset=-1    yoffset=5     xadvance=17    page=0  chnl=15
char id=3    x=174   y=146   width=15    height=16    xoffset=-1    yoffset=8     xadvance=17    page=0  chnl=15
char id=4    x=80    y=170   width=15    height=14    xoffset=-1    yoffset=8     xadvance=17    page=0  chnl=15
char id=5    x=0     y=156   width=17    height=18    xoffset=-1    yoffset=6     xadvance=17    page=0  chnl=15
char id=6    x=34    y=156   width=17    height=17    xoffset=-1    yoffset=7     xadvance=17    page=0  chnl=15
char id=7    x=28    y=202   width=9     height=8     xoffset=3     yoffset=12    xadvance=17    page=0  chnl=15
char id=8    x=0     y=0     width=17    height=31    xoffset=-1    yoffset=1     xadvance=17    page=0  chnl=15
char id=9    x=0     y=190   width=13    height=12    xoffset=1     yoffset=10    xadvance=17    page=0  chnl=15
char id=10   x=18    y=0     width=17    height=31    xoffset=-1    yoffset=1     xadvance=17    page=0  chnl=15
char id=11   x=96    y=69    width=15    height=19    xoffset=-1    yoffset=5     xadvance=17    page=0  chnl=15
char id=12   x=42    y=136   width=13    height=19    xoffset=-1    yoffset=5     xadvance=17    page=0  chnl=15
char id=13   x=188   y=46    width=17    height=19    xoffset=-1    yoffset=5     xadvance=17    page=0  chnl=15
char id=14   x=170   y=46    width=17    height=19    xoffset=-1    yoffset=5     xadvance=17    page=0  chnl=15
char id=15   x=236   y=126   width=17    height=18    xoffset=-1    yoffset=6     xadvance=17    page=0  chnl=15
char id=16   x=64    y=26    width=15    height=21    xoffset=-1    yoffset=3     xadvance=17    page=0  chnl=15
char id=17   x=80    y=26    width=15    height=21    xoffset=-1    yoffset=3     xadvance=17    page=0  chnl=15
char id=18   x=128   y=149   width=13    height=17    xoffset=1     yoffset=5     xadvance=17    page=0  chnl=15
char id=19   x=224   y=106   width=13    height=19    xoffset=1     yoffset=5     xadvance=17    page=0  chnl=15
char id=20   x=224   y=46    width=17    height=19    xoffset=-1    yoffset=5     xadvance=17    page=0  chnl=15
char id=21   x=116   y=0     width=15    height=23    xoffset=-1    yoffset=3     xadvance=17    page=0  chnl=15
char id=22   x=228   y=176   width=15    height=8     xoffset=-1    yoffset=16    xadvance=17    page=0  chnl=15
char id=23   x=28    y=136   width=13    height=19    xoffset=1     yoffset=5     xadvance=17    page=0  chnl=15
char id=24   x=238   y=106   width=13    height=19    xoffset=1     yoffset=5     xadvance=17    page=0  chnl=15
char id=25   x=0     y=136   width=13    height=19    xoffset=1     yoffset=5     xadvance=17    page=0  chnl=15
char id=26   x=152   y=181   width=15    height=10    xoffset=-1    yoffset=10    xadvance=17    page=0  chnl=15
char id=27   x=136   y=182   width=15    height=10    xoffset=-1    yoffset=10    xadvance=17    page=0  chnl=15
char id=28   x=212   y=178   width=15    height=8     xoffset=-1    yoffset=12    xadvance=17    page=0  chnl=15
char id=29   x=104   y=182   width=15    height=10    xoffset=-1    yoffset=10    xadvance=17    page=0  chnl=15
char id=30   x=128   y=167   width=15    height=14    xoffset=-1    yoffset=8     xadvance=17    page=0  chnl=15
char id=31   x=96    y=167   width=15    height=14    xoffset=-1    yoffset=8     xadvance=17    page=0  chnl=15
char id=32   x=42    y=30    width=3     height=1     xoffset=-1    yoffset=31    xadvance=17    page=0  chnl=15
char id=33   x=220   y=126   width=9     height=19    xoffset=3     yoffset=5     xadvance=17    page=0  chnl=15
char id=34   x=14    y=203   width=13    height=8     xoffset=1     yoffset=3     xadvance=17    page=0  chnl=15
char id=35   x=68    y=152   width=15    height=17    xoffset=-1    yoffset=7     xadvance=17    page=0  chnl=15
char id=36   x=36    y=0     width=15    height=27    xoffset=-1    yoffset=1     xadvance=17    page=0  chnl=15
char id=37   x=142   y=149   width=15    height=16    xoffset=-1    yoffset=8     xadvance=17    page=0  chnl=15
char id=38   x=176   y=66    width=15    height=19    xoffset=-1    yoffset=5     xadvance=17    page=0  chnl=15
char id=39   x=46    y=202   width=7     height=7     xoffset=1     yoffset=3     xadvance=17    page=0  chnl=15
char id=40   x=170   y=126   width=9     height=19    xoffset=3     yoffset=5     xadvance=17    page=0  chnl=15
char id=41   x=210   y=126   width=9     height=19    xoffset=3     yoffset=5     xadvance=17    page=0  chnl=15
char id=42   x=54    y=189   width=17    height=10    xoffset=-1    yoffset=10    xadvance=17    page=0  chnl=15
char id=43   x=168   y=179   width=13    height=10    xoffset=1     yoffset=10    xadvance=17    page=0  chnl=15
char id=44   x=38    y=202   width=7     height=8     xoffset=3     yoffset=18    xadvance=17    page=0  chnl=15
char id=45   x=98    y=196   width=15    height=2     xoffset=-1    yoffset=14    xadvance=17    page=0  chnl=15
char id=46   x=250   y=145   width=5     height=4     xoffset=5     yoffset=20    xadvance=17    page=0  chnl=15
char id=47   x=158   y=147   width=15    height=16    xoffset=-1    yoffset=8     xadvance=17    page=0  chnl=15
char id=48   x=192   y=66    width=15    height=19    xoffset=-1    yoffset=5     xadvance=17    page=0  chnl=15
char id=49   x=98    y=129   width=13    height=19    xoffset=1     yoffset=5     xadvance=17    page=0  chnl=15
char id=50   x=208   y=66    width=15    height=19    xoffset=-1    yoffset=5     xadvance=17    page=0  chnl=15
char id=51   x=224   y=66    width=15    height=19    xoffset=-1    yoffset=5     xadvance=17    page=0  chnl=15
char id=52   x=240   y=66    width=15    height=19    xoffset=-1    yoffset=5     xadvance=17    page=0  chnl=15
char id=53   x=0     y=96    width=15    height=19    xoffset=-1    yoffset=5     xadvance=17    page=0  chnl=15
char id=54   x=16    y=96    width=15    height=19    xoffset=-1    yoffset=5     xadvance=17    page=0  chnl=15
char id=55   x=32    y=96    width=15    height=19    xoffset=-1    yoffset=5     xadvance=17    page=0  chnl=15
char id=56   x=48    y=92    width=15    height=19    xoffset=-1    yoffset=5     xadvance=17    page=0  chnl=15
char id=57   x=64    y=92    width=15    height=19    xoffset=-1    yoffset=5     xadvance=17    page=0  chnl=15
char id=58   x=244   y=145   width=5     height=14    xoffset=5     yoffset=8     xadvance=17    page=0  chnl=15
char id=59   x=204   y=146   width=7     height=16    xoffset=3     yoffset=8     xadvance=17    page=0  chnl=15
char id=60   x=114   y=149   width=13    height=17    xoffset=1     yoffset=7     xadvance=17    page=0  chnl=15
char id=61   x=0     y=203   width=13    height=8     xoffset=1     yoffset=10    xadvance=17    page=0  chnl=15
char id=62   x=100   y=149   width=13    height=17    xoffset=1     yoffset=7     xadvance=17    page=0  chnl=15
char id=63   x=80    y=89    width=15    height=19    xoffset=-1    yoffset=5     xadvance=17    page=0  chnl=15
char id=64   x=52    y=156   width=15    height=17    xoffset=-1    yoffset=7     xadvance=17    page=0  chnl=15
char id=65   x=96    y=89    width=15    height=19    xoffset=-1    yoffset=5     xadvance=17    page=0  chnl=15
char id=66   x=112   y=89    width=15    height=19    xoffset=-1    yoffset=5     xadvance=17    page=0  chnl=15
char id=67   x=128   y=89    width=15    height=19    xoffset=-1    yoffset=5     xadvance=17    page=0  chnl=15
char id=68   x=144   y=87    width=15    height=19    xoffset=-1    yoffset=5     xadvance=17    page=0  chnl=15
char id=69   x=160   y=66    width=15    height=19    xoffset=-1    yoffset=5     xadvance=17    page=0  chnl=15
char id=70   x=160   y=86    width=15    height=19    xoffset=-1    yoffset=5     xadvance=17    page=0  chnl=15
char id=71   x=176   y=86    width=15    height=19    xoffset=-1    yoffset=5     xadvance=17    page=0  chnl=15
char id=72   x=192   y=86    width=15    height=19    xoffset=-1    yoffset=5     xadvance=17    page=0  chnl=15
char id=73   x=190   y=126   width=9     height=19    xoffset=3     yoffset=5     xadvance=17    page=0  chnl=15
char id=74   x=208   y=86    width=15    height=19    xoffset=-1    yoffset=5     xadvance=17    page=0  chnl=15
char id=75   x=224   y=86    width=15    height=19    xoffset=-1    yoffset=5     xadvance=17    page=0  chnl=15
char id=76   x=240   y=86    width=15    height=19    xoffset=-1    yoffset=5     xadvance=17    page=0  chnl=15
char id=77   x=0     y=116   width=15    height=19    xoffset=-1    yoffset=5     xadvance=17    page=0  chnl=15
char id=78   x=16    y=116   width=15    height=19    xoffset=-1    yoffset=5     xadvance=17    page=0  chnl=15
char id=79   x=32    y=116   width=15    height=19    xoffset=-1    yoffset=5     xadvance=17    page=0  chnl=15
char id=80   x=48    y=112   width=15    height=19    xoffset=-1    yoffset=5     xadvance=17    page=0  chnl=15
char id=81   x=180   y=0     width=15    height=23    xoffset=-1    yoffset=5     xadvance=17    page=0  chnl=15
char id=82   x=64    y=112   width=15    height=19    xoffset=-1    yoffset=5     xadvance=17    page=0  chnl=15
char id=83   x=80    y=109   width=15    height=19    xoffset=-1    yoffset=5     xadvance=17    page=0  chnl=15
char id=84   x=126   y=129   width=13    height=19    xoffset=1     yoffset=5     xadvance=17    page=0  chnl=15
char id=85   x=96    y=109   width=15    height=19    xoffset=-1    yoffset=5     xadvance=17    page=0  chnl=15
char id=86   x=112   y=109   width=15    height=19    xoffset=-1    yoffset=5     xadvance=17    page=0  chnl=15
char id=87   x=128   y=109   width=15    height=19    xoffset=-1    yoffset=5     xadvance=17    page=0  chnl=15
char id=88   x=144   y=107   width=15    height=19    xoffset=-1    yoffset=5     xadvance=17    page=0  chnl=15
char id=89   x=84    y=129   width=13    height=19    xoffset=1     yoffset=5     xadvance=17    page=0  chnl=15
char id=90   x=160   y=106   width=15    height=19    xoffset=-1    yoffset=5     xadvance=17    page=0  chnl=15
char id=91   x=200   y=126   width=9     height=19    xoffset=3     yoffset=5     xadvance=17    page=0  chnl=15
char id=92   x=84    y=149   width=15    height=17    xoffset=-1    yoffset=7     xadvance=17    page=0  chnl=15
char id=93   x=140   y=129   width=9     height=19    xoffset=3     yoffset=5     xadvance=17    page=0  chnl=15
char id=94   x=196   y=178   width=15    height=8     xoffset=-1    yoffset=1     xadvance=17    page=0  chnl=15
char id=95   x=80    y=200   width=17    height=2     xoffset=-1    yoffset=26    xadvance=17    page=0  chnl=15
char id=96   x=54    y=200   width=9     height=6     xoffset=3     yoffset=3     xadvance=17    page=0  chnl=15
char id=97   x=64    y=174   width=15    height=14    xoffset=-1    yoffset=10    xadvance=17    page=0  chnl=15
char id=98   x=192   y=106   width=15    height=19    xoffset=-1    yoffset=5     xadvance=17    page=0  chnl=15
char id=99   x=112   y=167   width=15    height=14    xoffset=-1    yoffset=10    xadvance=17    page=0  chnl=15
char id=100  x=208   y=106   width=15    height=19    xoffset=-1    yoffset=5     xadvance=17    page=0  chnl=15
char id=101  x=192   y=163   width=15    height=14    xoffset=-1    yoffset=10    xadvance=17    page=0  chnl=15
char id=102  x=242   y=44    width=13    height=19    xoffset=1     yoffset=5     xadvance=17    page=0  chnl=15
char id=103  x=120   y=48    width=15    height=20    xoffset=-1    yoffset=10    xadvance=17    page=0  chnl=15
char id=104  x=0     y=76    width=15    height=19    xoffset=-1    yoffset=5     xadvance=17    page=0  chnl=15
char id=105  x=150   y=127   width=9     height=19    xoffset=3     yoffset=5     xadvance=17    page=0  chnl=15
char id=106  x=102   y=0     width=13    height=25    xoffset=1     yoffset=5     xadvance=17    page=0  chnl=15
char id=107  x=16    y=76    width=15    height=19    xoffset=-1    yoffset=5     xadvance=17    page=0  chnl=15
char id=108  x=160   y=126   width=9     height=19    xoffset=3     yoffset=5     xadvance=17    page=0  chnl=15
char id=109  x=176   y=163   width=15    height=14    xoffset=-1    yoffset=10    xadvance=17    page=0  chnl=15
char id=110  x=208   y=163   width=15    height=14    xoffset=-1    yoffset=10    xadvance=17    page=0  chnl=15
char id=111  x=224   y=161   width=15    height=14    xoffset=-1    yoffset=10    xadvance=17    page=0  chnl=15
char id=112  x=88    y=48    width=15    height=20    xoffset=-1    yoffset=10    xadvance=17    page=0  chnl=15
char id=113  x=72    y=48    width=15    height=20    xoffset=-1    yoffset=10    xadvance=17    page=0  chnl=15
char id=114  x=144   y=166   width=15    height=14    xoffset=-1    yoffset=10    xadvance=17    page=0  chnl=15
char id=115  x=240   y=161   width=15    height=14    xoffset=-1    yoffset=10    xadvance=17    page=0  chnl=15
char id=116  x=32    y=76    width=15    height=19    xoffset=-1    yoffset=5     xadvance=17    page=0  chnl=15
char id=117  x=212   y=146   width=15    height=14    xoffset=-1    yoffset=10    xadvance=17    page=0  chnl=15
char id=118  x=228   y=146   width=15    height=14    xoffset=-1    yoffset=10    xadvance=17    page=0  chnl=15
char id=119  x=0     y=175   width=15    height=14    xoffset=-1    yoffset=10    xadvance=17    page=0  chnl=15
char id=120  x=16    y=175   width=15    height=14    xoffset=-1    yoffset=10    xadvance=17    page=0  chnl=15
char id=121  x=136   y=46    width=15    height=20    xoffset=-1    yoffset=10    xadvance=17    page=0  chnl=15
char id=122  x=32    y=175   width=15    height=14    xoffset=-1    yoffset=10    xadvance=17    page=0  chnl=15
char id=123  x=70    y=132   width=13    height=19    xoffset=1     yoffset=5     xadvance=17    page=0  chnl=15
char id=124  x=230   y=126   width=5     height=19    xoffset=5     yoffset=5     xadvance=17    page=0  chnl=15
char id=125  x=56    y=132   width=13    height=19    xoffset=1     yoffset=5     xadvance=17    page=0  chnl=15
char id=126  x=64    y=200   width=15    height=4     xoffset=-1    yoffset=3     xadvance=17    page=0  chnl=15
char id=127  x=48    y=174   width=15    height=14    xoffset=-1    yoffset=8     xadvance=17    page=0  chnl=15
char id=160  x=42    y=28    width=3     height=1     xoffset=-1    yoffset=31    xadvance=17    page=0  chnl=15
char id=161  x=180   y=126   width=9     height=19    xoffset=3     yoffset=5     xadvance=17    page=0  chnl=15
char id=162  x=228   y=0     width=15    height=21    xoffset=-1    yoffset=3     xadvance=17    page=0  chnl=15
char id=163  x=16    y=32    width=15    height=21    xoffset=-1    yoffset=3     xadvance=17    page=0  chnl=15
char id=165  x=112   y=129   width=13    height=19    xoffset=1     yoffset=5     xadvance=17    page=0  chnl=15
char id=170  x=28    y=190   width=13    height=11    xoffset=1     yoffset=5     xadvance=17    page=0  chnl=15
char id=171  x=120   y=182   width=15    height=10    xoffset=-1    yoffset=10    xadvance=17    page=0  chnl=15
char id=172  x=72    y=189   width=15    height=10    xoffset=-1    yoffset=12    xadvance=17    page=0  chnl=15
char id=176  x=244   y=176   width=11    height=8     xoffset=1     yoffset=3     xadvance=17    page=0  chnl=15
char id=177  x=190   y=146   width=13    height=16    xoffset=1     yoffset=8     xadvance=17    page=0  chnl=15
char id=178  x=14    y=190   width=13    height=12    xoffset=1     yoffset=2     xadvance=17    page=0  chnl=15
char id=181  x=104   y=48    width=15    height=20    xoffset=-1    yoffset=10    xadvance=17    page=0  chnl=15
char id=183  x=36    y=28    width=5     height=2     xoffset=5     yoffset=14    xadvance=17    page=0  chnl=15
char id=186  x=42    y=190   width=11    height=11    xoffset=1     yoffset=5     xadvance=17    page=0  chnl=15
char id=187  x=88    y=185   width=15    height=10    xoffset=-1    yoffset=10    xadvance=17    page=0  chnl=15
char id=188  x=52    y=0     width=17    height=25    xoffset=-1    yoffset=3     xadvance=17    page=0  chnl=15
char id=189  x=86    y=0     width=15    height=25    xoffset=-1    yoffset=3     xadvance=17    page=0  chnl=15
char id=191  x=48    y=72    width=15    height=19    xoffset=-1    yoffset=5     xadvance=17    page=0  chnl=15
char id=196  x=48    y=28    width=15    height=21    xoffset=-1    yoffset=3     xadvance=17    page=0  chnl=15
char id=197  x=148   y=0     width=15    height=23    xoffset=-1    yoffset=1     xadvance=17    page=0  chnl=15
char id=198  x=164   y=0     width=15    height=23    xoffset=-1    yoffset=1     xadvance=17    page=0  chnl=15
char id=199  x=196   y=0     width=15    height=23    xoffset=-1    yoffset=5     xadvance=17    page=0  chnl=15
char id=201  x=212   y=0     width=15    height=23    xoffset=-1    yoffset=1     xadvance=17    page=0  chnl=15
char id=209  x=132   y=0     width=15    height=23    xoffset=-1    yoffset=1     xadvance=17    page=0  chnl=15
char id=214  x=0     y=32    width=15    height=21    xoffset=-1    yoffset=3     xadvance=17    page=0  chnl=15
char id=220  x=32    y=54    width=15    height=21    xoffset=-1    yoffset=3     xadvance=17    page=0  chnl=15
char id=223  x=64    y=72    width=15    height=19    xoffset=-1    yoffset=5     xadvance=17    page=0  chnl=15
char id=224  x=16    y=54    width=15    height=21    xoffset=-1    yoffset=3     xadvance=17    page=0  chnl=15
char id=225  x=128   y=24    width=15    height=21    xoffset=-1    yoffset=3     xadvance=17    page=0  chnl=15
char id=226  x=0     y=54    width=15    height=21    xoffset=-1    yoffset=3     xadvance=17    page=0  chnl=15
char id=228  x=176   y=106   width=15    height=19    xoffset=-1    yoffset=5     xadvance=17    page=0  chnl=15
char id=229  x=240   y=22    width=15    height=21    xoffset=-1    yoffset=3     xadvance=17    page=0  chnl=15
char id=230  x=160   y=164   width=15    height=14    xoffset=-1    yoffset=10    xadvance=17    page=0  chnl=15
char id=231  x=18    y=156   width=15    height=18    xoffset=-1    yoffset=10    xadvance=17    page=0  chnl=15
char id=232  x=224   y=24    width=15    height=21    xoffset=-1    yoffset=3     xadvance=17    page=0  chnl=15
char id=233  x=208   y=24    width=15    height=21    xoffset=-1    yoffset=3     xadvance=17    page=0  chnl=15
char id=234  x=192   y=24    width=15    height=21    xoffset=-1    yoffset=3     xadvance=17    page=0  chnl=15
char id=235  x=80    y=69    width=15    height=19    xoffset=-1    yoffset=5     xadvance=17    page=0  chnl=15
char id=236  x=244   y=0     width=11    height=21    xoffset=1     yoffset=3     xadvance=17    page=0  chnl=15
char id=237  x=62    y=50    width=9     height=21    xoffset=3     yoffset=3     xadvance=17    page=0  chnl=15
char id=238  x=48    y=50    width=13    height=21    xoffset=1     yoffset=3     xadvance=17    page=0  chnl=15
char id=239  x=14    y=136   width=13    height=19    xoffset=1     yoffset=5     xadvance=17    page=0  chnl=15
char id=241  x=112   y=69    width=15    height=19    xoffset=-1    yoffset=5     xadvance=17    page=0  chnl=15
char id=242  x=176   y=24    width=15    height=21    xoffset=-1    yoffset=3     xadvance=17    page=0  chnl=15
char id=243  x=160   y=24    width=15    height=21    xoffset=-1    yoffset=3     xadvance=17    page=0  chnl=15
char id=244  x=144   y=24    width=15    height=21    xoffset=-1    yoffset=3     xadvance=17    page=0  chnl=15
char id=246  x=128   y=69    width=15    height=19    xoffset=-1    yoffset=5     xadvance=17    page=0  chnl=15
char id=247  x=182   y=178   width=13    height=10    xoffset=1     yoffset=10    xadvance=17    page=0  chnl=15
char id=249  x=32    y=32    width=15    height=21    xoffset=-1    yoffset=3     xadvance=17    page=0  chnl=15
char id=250  x=112   y=26    width=15    height=21    xoffset=-1    yoffset=3     xadvance=17    page=0  chnl=15
char id=251  x=96    y=26    width=15    height=21    xoffset=-1    yoffset=3     xadvance=17    page=0  chnl=15
char id=252  x=144   y=67    width=15    height=19    xoffset=-1    yoffset=5     xadvance=17    page=0  chnl=15
char id=255  x=70    y=0     width=15    height=25    xoffset=-1    yoffset=5     xadvance=17    page=0  chnl=15
